waveforms/receiver_uut.vcd
$date
	Thu Dec  4 14:20:52 2025
$end
$version
	Icarus Verilog
$end
$timescale
	1ps
$end
$scope module receiver_uut_tb $end
$var wire 1 ! parity_error $end
$var wire 1 " frame_error $end
$var wire 1 # data_ready $end
$var wire 8 $ data_o [7:0] $end
$var reg 1 % clk $end
$var reg 1 & data_i $end
$var reg 1 ' nrst $end
$var reg 1 ( parity_en_i $end
$scope module topTest $end
$var wire 1 & data_i $end
$var wire 1 % hwclk $end
$var wire 1 ( parity_en_input $end
$var wire 1 ' reset $end
$var wire 1 ) shift_en $end
$var wire 1 ! parity_error $end
$var wire 1 * parity_en $end
$var wire 1 " frame_error $end
$var wire 1 + frame_en $end
$var wire 1 # data_ready $end
$var wire 1 , baud_tick $end
$var wire 8 - SIPOdata_o [7:0] $end
$scope module baudgen $end
$var wire 1 % clk $end
$var wire 16 . divisor [15:0] $end
$var wire 1 ' nrst $end
$var reg 1 , baud_tick $end
$var reg 1 / baud_tick_n $end
$var reg 16 0 counter [15:0] $end
$var reg 16 1 counter_n [15:0] $end
$upscope $end
$scope module recFSM $end
$var wire 1 , baud_tick $end
$var wire 1 % clk $end
$var wire 1 & data_i $end
$var wire 1 ' nrst $end
$var wire 1 ( parity_en_i $end
$var reg 4 2 bit_count [3:0] $end
$var reg 1 # data_ready $end
$var reg 1 + frame_en $end
$var reg 4 3 nextCount [3:0] $end
$var reg 3 4 nextState [2:0] $end
$var reg 1 * parity_en $end
$var reg 1 ) shift_en $end
$var reg 3 5 state [2:0] $end
$upscope $end
$scope module recFrame $end
$var wire 1 + frame_en $end
$var wire 1 & stop_bit $end
$var reg 1 " frame_error $end
$upscope $end
$scope module recParity $end
$var wire 1 & parity_bit $end
$var wire 1 * parity_en $end
$var wire 8 6 sipo_i [7:0] $end
$var reg 1 ! parity_error $end
$upscope $end
$scope module recSIPO $end
$var wire 1 % clk $end
$var wire 1 & data_i $end
$var wire 1 ' nrst $end
$var wire 1 ) shift_en $end
$var reg 8 7 nextSipo_o [7:0] $end
$var reg 8 8 sipo_o [7:0] $end
$upscope $end
$upscope $end
$upscope $end
$enddefinitions $end
$comment Show the parameter values. $end
$dumpall
$end
#0
$dumpvars
bx 8
bx 7
bx 6
bx 5
b0 4
bx 3
bx 2
bx 1
bx 0
0/
b10011100010 .
bx -
0,
0+
0*
0)
x(
1'
x&
1%
bx $
0#
0"
0!
$end
#10000
b0 7
b0 3
b1 1
b0 $
b0 -
b0 6
b0 8
b0 2
b0 5
b0 0
0'
#20000
1'
#40000
b1 4
0&
1(
#41660
0%
#83320
b10 1
b1 0
b1 5
1%
#124980
0%
#166640
b11 1
b10 0
1%
#208300
0%
#249960
b100 1
b11 0
1%
#291620
0%
#333280
b101 1
b100 0
1%
#374940
0%
#416600
b110 1
b101 0
1%
#458260
0%
#499920
b111 1
b110 0
1%
#541580
0%
#583240
b1000 1
b111 0
1%
#624900
0%
#666560
b1001 1
b1000 0
1%
#708220
0%
#749880
b1010 1
b1001 0
1%
#791540
0%
#833200
b1011 1
b1010 0
1%
#874860
0%
#916520
b1100 1
b1011 0
1%
#958180
0%
#999840
b1101 1
b1100 0
1%
#1041500
0%
#1083160
b1110 1
b1101 0
1%
#1124820
0%
#1166480
b1111 1
b1110 0
1%
#1208140
0%
#1249800
b10000 1
b1111 0
1%
#1291460
0%
#1333120
b10001 1
b10000 0
1%
#1374780
0%
#1416440
b10010 1
b10001 0
1%
#1458100
0%
#1499760
b10011 1
b10010 0
1%
#1541420
0%
#1583080
b10100 1
b10011 0
1%
#1624740
0%
#1666400
b10101 1
b10100 0
1%
#1708060
0%
#1749720
b10110 1
b10101 0
1%
#1791380
0%
#1833040
b10111 1
b10110 0
1%
#1874700
0%
#1916360
b11000 1
b10111 0
1%
#1958020
0%
#1999680
b11001 1
b11000 0
1%
#2041340
0%
#2083000
b11010 1
b11001 0
1%
#2124660
0%
#2166320
b11011 1
b11010 0
1%
#2207980
0%
#2249640
b11100 1
b11011 0
1%
#2291300
0%
#2332960
b11101 1
b11100 0
1%
#2374620
0%
#2416280
b11110 1
b11101 0
1%
#2457940
0%
#2499600
b11111 1
b11110 0
1%
#2541260
0%
#2582920
b100000 1
b11111 0
1%
#2624580
0%
#2666240
b100001 1
b100000 0
1%
#2707900
0%
#2749560
b100010 1
b100001 0
1%
#2791220
0%
#2832880
b100011 1
b100010 0
1%
#2874540
0%
#2916200
b100100 1
b100011 0
1%
#2957860
0%
#2999520
b100101 1
b100100 0
1%
#3041180
0%
#3082840
b100110 1
b100101 0
1%
#3124500
0%
#3166160
b100111 1
b100110 0
1%
#3207820
0%
#3249480
b101000 1
b100111 0
1%
#3291140
0%
#3332800
b101001 1
b101000 0
1%
#3374460
0%
#3416120
b101010 1
b101001 0
1%
#3457780
0%
#3499440
b101011 1
b101010 0
1%
#3541100
0%
#3582760
b101100 1
b101011 0
1%
#3624420
0%
#3666080
b101101 1
b101100 0
1%
#3707740
0%
#3749400
b101110 1
b101101 0
1%
#3791060
0%
#3832720
b101111 1
b101110 0
1%
#3874380
0%
#3916040
b110000 1
b101111 0
1%
#3957700
0%
#3999360
b110001 1
b110000 0
1%
#4041020
0%
#4082680
b110010 1
b110001 0
1%
#4124340
0%
#4166000
b110011 1
b110010 0
1%
#4207660
0%
#4249320
b110100 1
b110011 0
1%
#4290980
0%
#4332640
b110101 1
b110100 0
1%
#4374300
0%
#4415960
b110110 1
b110101 0
1%
#4457620
0%
#4499280
b110111 1
b110110 0
1%
#4540940
0%
#4582600
b111000 1
b110111 0
1%
#4624260
0%
#4665920
b111001 1
b111000 0
1%
#4707580
0%
#4749240
b111010 1
b111001 0
1%
#4790900
0%
#4832560
b111011 1
b111010 0
1%
#4874220
0%
#4915880
b111100 1
b111011 0
1%
#4957540
0%
#4999200
b111101 1
b111100 0
1%
#5040860
0%
#5082520
b111110 1
b111101 0
1%
#5124180
0%
#5165840
b111111 1
b111110 0
1%
#5207500
0%
#5249160
b1000000 1
b111111 0
1%
#5290820
0%
#5332480
b1000001 1
b1000000 0
1%
#5374140
0%
#5415800
b1000010 1
b1000001 0
1%
#5457460
0%
#5499120
b1000011 1
b1000010 0
1%
#5540780
0%
#5582440
b1000100 1
b1000011 0
1%
#5624100
0%
#5665760
b1000101 1
b1000100 0
1%
#5707420
0%
#5749080
b1000110 1
b1000101 0
1%
#5790740
0%
#5832400
b1000111 1
b1000110 0
1%
#5874060
0%
#5915720
b1001000 1
b1000111 0
1%
#5957380
0%
#5999040
b1001001 1
b1001000 0
1%
#6040700
0%
#6082360
b1001010 1
b1001001 0
1%
#6124020
0%
#6165680
b1001011 1
b1001010 0
1%
#6207340
0%
#6249000
b1001100 1
b1001011 0
1%
#6290660
0%
#6332320
b1001101 1
b1001100 0
1%
#6373980
0%
#6415640
b1001110 1
b1001101 0
1%
#6457300
0%
#6498960
b1001111 1
b1001110 0
1%
#6540620
0%
#6582280
b1010000 1
b1001111 0
1%
#6623940
0%
#6665600
b1010001 1
b1010000 0
1%
#6707260
0%
#6748920
b1010010 1
b1010001 0
1%
#6790580
0%
#6832240
b1010011 1
b1010010 0
1%
#6873900
0%
#6915560
b1010100 1
b1010011 0
1%
#6957220
0%
#6998880
b1010101 1
b1010100 0
1%
#7040540
0%
#7082200
b1010110 1
b1010101 0
1%
#7123860
0%
#7165520
b1010111 1
b1010110 0
1%
#7207180
0%
#7248840
b1011000 1
b1010111 0
1%
#7290500
0%
#7332160
b1011001 1
b1011000 0
1%
#7373820
0%
#7415480
b1011010 1
b1011001 0
1%
#7457140
0%
#7498800
b1011011 1
b1011010 0
1%
#7540460
0%
#7582120
b1011100 1
b1011011 0
1%
#7623780
0%
#7665440
b1011101 1
b1011100 0
1%
#7707100
0%
#7748760
b1011110 1
b1011101 0
1%
#7790420
0%
#7832080
b1011111 1
b1011110 0
1%
#7873740
0%
#7915400
b1100000 1
b1011111 0
1%
#7957060
0%
#7998720
b1100001 1
b1100000 0
1%
#8040380
0%
#8082040
b1100010 1
b1100001 0
1%
#8123700
0%
#8165360
b1100011 1
b1100010 0
1%
#8207020
0%
#8248680
b1100100 1
b1100011 0
1%
#8290340
0%
#8332000
b1100101 1
b1100100 0
1%
#8373660
0%
#8415320
b1100110 1
b1100101 0
1%
#8456980
0%
#8498640
b1100111 1
b1100110 0
1%
#8540300
0%
#8581960
b1101000 1
b1100111 0
1%
#8623620
0%
#8665280
b1101001 1
b1101000 0
1%
#8706940
0%
#8748600
b1101010 1
b1101001 0
1%
#8790260
0%
#8831920
b1101011 1
b1101010 0
1%
#8873580
0%
#8915240
b1101100 1
b1101011 0
1%
#8956900
0%
#8998560
b1101101 1
b1101100 0
1%
#9040220
0%
#9081880
b1101110 1
b1101101 0
1%
#9123540
0%
#9165200
b1101111 1
b1101110 0
1%
#9206860
0%
#9248520
b1110000 1
b1101111 0
1%
#9290180
0%
#9331840
b1110001 1
b1110000 0
1%
#9373500
0%
#9415160
b1110010 1
b1110001 0
1%
#9456820
0%
#9498480
b1110011 1
b1110010 0
1%
#9540140
0%
#9581800
b1110100 1
b1110011 0
1%
#9623460
0%
#9665120
b1110101 1
b1110100 0
1%
#9706780
0%
#9748440
b1110110 1
b1110101 0
1%
#9790100
0%
#9831760
b1110111 1
b1110110 0
1%
#9873420
0%
#9915080
b1111000 1
b1110111 0
1%
#9956740
0%
#9998400
b1111001 1
b1111000 0
1%
#10040060
0%
#10081720
b1111010 1
b1111001 0
1%
#10123380
0%
#10165040
b1111011 1
b1111010 0
1%
#10206700
0%
#10248360
b1111100 1
b1111011 0
1%
#10290020
0%
#10331680
b1111101 1
b1111100 0
1%
#10373340
0%
#10415000
b1111110 1
b1111101 0
1%
#10456660
0%
#10498320
b1111111 1
b1111110 0
1%
#10539980
0%
#10581640
b10000000 1
b1111111 0
1%
#10623300
0%
#10664960
b10000001 1
b10000000 0
1%
#10706620
0%
#10748280
b10000010 1
b10000001 0
1%
#10789940
0%
#10831600
b10000011 1
b10000010 0
1%
#10873260
0%
#10914920
b10000100 1
b10000011 0
1%
#10956580
0%
#10998240
b10000101 1
b10000100 0
1%
#11039900
0%
#11081560
b10000110 1
b10000101 0
1%
#11123220
0%
#11164880
b10000111 1
b10000110 0
1%
#11206540
0%
#11248200
b10001000 1
b10000111 0
1%
#11289860
0%
#11331520
b10001001 1
b10001000 0
1%
#11373180
0%
#11414840
b10001010 1
b10001001 0
1%
#11456500
0%
#11498160
b10001011 1
b10001010 0
1%
#11539820
0%
#11581480
b10001100 1
b10001011 0
1%
#11623140
0%
#11664800
b10001101 1
b10001100 0
1%
#11706460
0%
#11748120
b10001110 1
b10001101 0
1%
#11789780
0%
#11831440
b10001111 1
b10001110 0
1%
#11873100
0%
#11914760
b10010000 1
b10001111 0
1%
#11956420
0%
#11998080
b10010001 1
b10010000 0
1%
#12039740
0%
#12081400
b10010010 1
b10010001 0
1%
#12123060
0%
#12164720
b10010011 1
b10010010 0
1%
#12206380
0%
#12248040
b10010100 1
b10010011 0
1%
#12289700
0%
#12331360
b10010101 1
b10010100 0
1%
#12373020
0%
#12414680
b10010110 1
b10010101 0
1%
#12456340
0%
#12498000
b10010111 1
b10010110 0
1%
#12539660
0%
#12581320
b10011000 1
b10010111 0
1%
#12622980
0%
#12664640
b10011001 1
b10011000 0
1%
#12706300
0%
#12747960
b10011010 1
b10011001 0
1%
#12789620
0%
#12831280
b10011011 1
b10011010 0
1%
#12872940
0%
#12914600
b10011100 1
b10011011 0
1%
#12956260
0%
#12997920
b10011101 1
b10011100 0
1%
#13039580
0%
#13081240
b10011110 1
b10011101 0
1%
#13122900
0%
#13164560
b10011111 1
b10011110 0
1%
#13206220
0%
#13247880
b10100000 1
b10011111 0
1%
#13289540
0%
#13331200
b10100001 1
b10100000 0
1%
#13372860
0%
#13414520
b10100010 1
b10100001 0
1%
#13456180
0%
#13497840
b10100011 1
b10100010 0
1%
#13539500
0%
#13581160
b10100100 1
b10100011 0
1%
#13622820
0%
#13664480
b10100101 1
b10100100 0
1%
#13706140
0%
#13747800
b10100110 1
b10100101 0
1%
#13789460
0%
#13831120
b10100111 1
b10100110 0
1%
#13872780
0%
#13914440
b10101000 1
b10100111 0
1%
#13956100
0%
#13997760
b10101001 1
b10101000 0
1%
#14039420
0%
#14081080
b10101010 1
b10101001 0
1%
#14122740
0%
#14164400
b10101011 1
b10101010 0
1%
#14206060
0%
#14247720
b10101100 1
b10101011 0
1%
#14289380
0%
#14331040
b10101101 1
b10101100 0
1%
#14372700
0%
#14414360
b10101110 1
b10101101 0
1%
#14456020
0%
#14497680
b10101111 1
b10101110 0
1%
#14539340
0%
#14581000
b10110000 1
b10101111 0
1%
#14622660
0%
#14664320
b10110001 1
b10110000 0
1%
#14705980
0%
#14747640
b10110010 1
b10110001 0
1%
#14789300
0%
#14830960
b10110011 1
b10110010 0
1%
#14872620
0%
#14914280
b10110100 1
b10110011 0
1%
#14955940
0%
#14997600
b10110101 1
b10110100 0
1%
#15039260
0%
#15080920
b10110110 1
b10110101 0
1%
#15122580
0%
#15164240
b10110111 1
b10110110 0
1%
#15205900
0%
#15247560
b10111000 1
b10110111 0
1%
#15289220
0%
#15330880
b10111001 1
b10111000 0
1%
#15372540
0%
#15414200
b10111010 1
b10111001 0
1%
#15455860
0%
#15497520
b10111011 1
b10111010 0
1%
#15539180
0%
#15580840
b10111100 1
b10111011 0
1%
#15622500
0%
#15664160
b10111101 1
b10111100 0
1%
#15705820
0%
#15747480
b10111110 1
b10111101 0
1%
#15789140
0%
#15830800
b10111111 1
b10111110 0
1%
#15872460
0%
#15914120
b11000000 1
b10111111 0
1%
#15955780
0%
#15997440
b11000001 1
b11000000 0
1%
#16039100
0%
#16080760
b11000010 1
b11000001 0
1%
#16122420
0%
#16164080
b11000011 1
b11000010 0
1%
#16205740
0%
#16247400
b11000100 1
b11000011 0
1%
#16289060
0%
#16330720
b11000101 1
b11000100 0
1%
#16372380
0%
#16414040
b11000110 1
b11000101 0
1%
#16455700
0%
#16497360
b11000111 1
b11000110 0
1%
#16539020
0%
#16580680
b11001000 1
b11000111 0
1%
#16622340
0%
#16664000
b11001001 1
b11001000 0
1%
#16705660
0%
#16747320
b11001010 1
b11001001 0
1%
#16788980
0%
#16830640
b11001011 1
b11001010 0
1%
#16872300
0%
#16913960
b11001100 1
b11001011 0
1%
#16955620
0%
#16997280
b11001101 1
b11001100 0
1%
#17038940
0%
#17080600
b11001110 1
b11001101 0
1%
#17122260
0%
#17163920
b11001111 1
b11001110 0
1%
#17205580
0%
#17247240
b11010000 1
b11001111 0
1%
#17288900
0%
#17330560
b11010001 1
b11010000 0
1%
#17372220
0%
#17413880
b11010010 1
b11010001 0
1%
#17455540
0%
#17497200
b11010011 1
b11010010 0
1%
#17538860
0%
#17580520
b11010100 1
b11010011 0
1%
#17622180
0%
#17663840
b11010101 1
b11010100 0
1%
#17705500
0%
#17747160
b11010110 1
b11010101 0
1%
#17788820
0%
#17830480
b11010111 1
b11010110 0
1%
#17872140
0%
#17913800
b11011000 1
b11010111 0
1%
#17955460
0%
#17997120
b11011001 1
b11011000 0
1%
#18038780
0%
#18080440
b11011010 1
b11011001 0
1%
#18122100
0%
#18163760
b11011011 1
b11011010 0
1%
#18205420
0%
#18247080
b11011100 1
b11011011 0
1%
#18288740
0%
#18330400
b11011101 1
b11011100 0
1%
#18372060
0%
#18413720
b11011110 1
b11011101 0
1%
#18455380
0%
#18497040
b11011111 1
b11011110 0
1%
#18538700
0%
#18580360
b11100000 1
b11011111 0
1%
#18622020
0%
#18663680
b11100001 1
b11100000 0
1%
#18705340
0%
#18747000
b11100010 1
b11100001 0
1%
#18788660
0%
#18830320
b11100011 1
b11100010 0
1%
#18871980
0%
#18913640
b11100100 1
b11100011 0
1%
#18955300
0%
#18996960
b11100101 1
b11100100 0
1%
#19038620
0%
#19080280
b11100110 1
b11100101 0
1%
#19121940
0%
#19163600
b11100111 1
b11100110 0
1%
#19205260
0%
#19246920
b11101000 1
b11100111 0
1%
#19288580
0%
#19330240
b11101001 1
b11101000 0
1%
#19371900
0%
#19413560
b11101010 1
b11101001 0
1%
#19455220
0%
#19496880
b11101011 1
b11101010 0
1%
#19538540
0%
#19580200
b11101100 1
b11101011 0
1%
#19621860
0%
#19663520
b11101101 1
b11101100 0
1%
#19705180
0%
#19746840
b11101110 1
b11101101 0
1%
#19788500
0%
#19830160
b11101111 1
b11101110 0
1%
#19871820
0%
#19913480
b11110000 1
b11101111 0
1%
#19955140
0%
#19996800
b11110001 1
b11110000 0
1%
#20038460
0%
#20080120
b11110010 1
b11110001 0
1%
#20121780
0%
#20163440
b11110011 1
b11110010 0
1%
#20205100
0%
#20246760
b11110100 1
b11110011 0
1%
#20288420
0%
#20330080
b11110101 1
b11110100 0
1%
#20371740
0%
#20413400
b11110110 1
b11110101 0
1%
#20455060
0%
#20496720
b11110111 1
b11110110 0
1%
#20538380
0%
#20580040
b11111000 1
b11110111 0
1%
#20621700
0%
#20663360
b11111001 1
b11111000 0
1%
#20705020
0%
#20746680
b11111010 1
b11111001 0
1%
#20788340
0%
#20830000
b11111011 1
b11111010 0
1%
#20871660
0%
#20913320
b11111100 1
b11111011 0
1%
#20954980
0%
#20996640
b11111101 1
b11111100 0
1%
#21038300
0%
#21079960
b11111110 1
b11111101 0
1%
#21121620
0%
#21163280
b11111111 1
b11111110 0
1%
#21204940
0%
#21246600
b100000000 1
b11111111 0
1%
#21288260
0%
#21329920
b100000001 1
b100000000 0
1%
#21371580
0%
#21413240
b100000010 1
b100000001 0
1%
#21454900
0%
#21496560
b100000011 1
b100000010 0
1%
#21538220
0%
#21579880
b100000100 1
b100000011 0
1%
#21621540
0%
#21663200
b100000101 1
b100000100 0
1%
#21704860
0%
#21746520
b100000110 1
b100000101 0
1%
#21788180
0%
#21829840
b100000111 1
b100000110 0
1%
#21871500
0%
#21913160
b100001000 1
b100000111 0
1%
#21954820
0%
#21996480
b100001001 1
b100001000 0
1%
#22038140
0%
#22079800
b100001010 1
b100001001 0
1%
#22121460
0%
#22163120
b100001011 1
b100001010 0
1%
#22204780
0%
#22246440
b100001100 1
b100001011 0
1%
#22288100
0%
#22329760
b100001101 1
b100001100 0
1%
#22371420
0%
#22413080
b100001110 1
b100001101 0
1%
#22454740
0%
#22496400
b100001111 1
b100001110 0
1%
#22538060
0%
#22579720
b100010000 1
b100001111 0
1%
#22621380
0%
#22663040
b100010001 1
b100010000 0
1%
#22704700
0%
#22746360
b100010010 1
b100010001 0
1%
#22788020
0%
#22829680
b100010011 1
b100010010 0
1%
#22871340
0%
#22913000
b100010100 1
b100010011 0
1%
#22954660
0%
#22996320
b100010101 1
b100010100 0
1%
#23037980
0%
#23079640
b100010110 1
b100010101 0
1%
#23121300
0%
#23162960
b100010111 1
b100010110 0
1%
#23204620
0%
#23246280
b100011000 1
b100010111 0
1%
#23287940
0%
#23329600
b100011001 1
b100011000 0
1%
#23371260
0%
#23412920
b100011010 1
b100011001 0
1%
#23454580
0%
#23496240
b100011011 1
b100011010 0
1%
#23537900
0%
#23579560
b100011100 1
b100011011 0
1%
#23621220
0%
#23662880
b100011101 1
b100011100 0
1%
#23704540
0%
#23746200
b100011110 1
b100011101 0
1%
#23787860
0%
#23829520
b100011111 1
b100011110 0
1%
#23871180
0%
#23912840
b100100000 1
b100011111 0
1%
#23954500
0%
#23996160
b100100001 1
b100100000 0
1%
#24037820
0%
#24079480
b100100010 1
b100100001 0
1%
#24121140
0%
#24162800
b100100011 1
b100100010 0
1%
#24204460
0%
#24246120
b100100100 1
b100100011 0
1%
#24287780
0%
#24329440
b100100101 1
b100100100 0
1%
#24371100
0%
#24412760
b100100110 1
b100100101 0
1%
#24454420
0%
#24496080
b100100111 1
b100100110 0
1%
#24537740
0%
#24579400
b100101000 1
b100100111 0
1%
#24621060
0%
#24662720
b100101001 1
b100101000 0
1%
#24704380
0%
#24746040
b100101010 1
b100101001 0
1%
#24787700
0%
#24829360
b100101011 1
b100101010 0
1%
#24871020
0%
#24912680
b100101100 1
b100101011 0
1%
#24954340
0%
#24996000
b100101101 1
b100101100 0
1%
#25037660
0%
#25079320
b100101110 1
b100101101 0
1%
#25120980
0%
#25162640
b100101111 1
b100101110 0
1%
#25204300
0%
#25245960
b100110000 1
b100101111 0
1%
#25287620
0%
#25329280
b100110001 1
b100110000 0
1%
#25370940
0%
#25412600
b100110010 1
b100110001 0
1%
#25454260
0%
#25495920
b100110011 1
b100110010 0
1%
#25537580
0%
#25579240
b100110100 1
b100110011 0
1%
#25620900
0%
#25662560
b100110101 1
b100110100 0
1%
#25704220
0%
#25745880
b100110110 1
b100110101 0
1%
#25787540
0%
#25829200
b100110111 1
b100110110 0
1%
#25870860
0%
#25912520
b100111000 1
b100110111 0
1%
#25954180
0%
#25995840
b100111001 1
b100111000 0
1%
#26037500
0%
#26079160
b100111010 1
b100111001 0
1%
#26120820
0%
#26162480
b100111011 1
b100111010 0
1%
#26204140
0%
#26245800
b100111100 1
b100111011 0
1%
#26287460
0%
#26329120
b100111101 1
b100111100 0
1%
#26370780
0%
#26412440
b100111110 1
b100111101 0
1%
#26454100
0%
#26495760
b100111111 1
b100111110 0
1%
#26537420
0%
#26579080
b101000000 1
b100111111 0
1%
#26620740
0%
#26662400
b101000001 1
b101000000 0
1%
#26704060
0%
#26745720
b101000010 1
b101000001 0
1%
#26787380
0%
#26829040
b101000011 1
b101000010 0
1%
#26870700
0%
#26912360
b101000100 1
b101000011 0
1%
#26954020
0%
#26995680
b101000101 1
b101000100 0
1%
#27037340
0%
#27079000
b101000110 1
b101000101 0
1%
#27120660
0%
#27162320
b101000111 1
b101000110 0
1%
#27203980
0%
#27245640
b101001000 1
b101000111 0
1%
#27287300
0%
#27328960
b101001001 1
b101001000 0
1%
#27370620
0%
#27412280
b101001010 1
b101001001 0
1%
#27453940
0%
#27495600
b101001011 1
b101001010 0
1%
#27537260
0%
#27578920
b101001100 1
b101001011 0
1%
#27620580
0%
#27662240
b101001101 1
b101001100 0
1%
#27703900
0%
#27745560
b101001110 1
b101001101 0
1%
#27787220
0%
#27828880
b101001111 1
b101001110 0
1%
#27870540
0%
#27912200
b101010000 1
b101001111 0
1%
#27953860
0%
#27995520
b101010001 1
b101010000 0
1%
#28037180
0%
#28078840
b101010010 1
b101010001 0
1%
#28120500
0%
#28162160
b101010011 1
b101010010 0
1%
#28203820
0%
#28245480
b101010100 1
b101010011 0
1%
#28287140
0%
#28328800
b101010101 1
b101010100 0
1%
#28370460
0%
#28412120
b101010110 1
b101010101 0
1%
#28453780
0%
#28495440
b101010111 1
b101010110 0
1%
#28537100
0%
#28578760
b101011000 1
b101010111 0
1%
#28620420
0%
#28662080
b101011001 1
b101011000 0
1%
#28703740
0%
#28745400
b101011010 1
b101011001 0
1%
#28787060
0%
#28828720
b101011011 1
b101011010 0
1%
#28870380
0%
#28912040
b101011100 1
b101011011 0
1%
#28953700
0%
#28995360
b101011101 1
b101011100 0
1%
#29037020
0%
#29078680
b101011110 1
b101011101 0
1%
#29120340
0%
#29162000
b101011111 1
b101011110 0
1%
#29203660
0%
#29245320
b101100000 1
b101011111 0
1%
#29286980
0%
#29328640
b101100001 1
b101100000 0
1%
#29370300
0%
#29411960
b101100010 1
b101100001 0
1%
#29453620
0%
#29495280
b101100011 1
b101100010 0
1%
#29536940
0%
#29578600
b101100100 1
b101100011 0
1%
#29620260
0%
#29661920
b101100101 1
b101100100 0
1%
#29703580
0%
#29745240
b101100110 1
b101100101 0
1%
#29786900
0%
#29828560
b101100111 1
b101100110 0
1%
#29870220
0%
#29911880
b101101000 1
b101100111 0
1%
#29953540
0%
#29995200
b101101001 1
b101101000 0
1%
#30036860
0%
#30078520
b101101010 1
b101101001 0
1%
#30120180
0%
#30161840
b101101011 1
b101101010 0
1%
#30203500
0%
#30245160
b101101100 1
b101101011 0
1%
#30286820
0%
#30328480
b101101101 1
b101101100 0
1%
#30370140
0%
#30411800
b101101110 1
b101101101 0
1%
#30453460
0%
#30495120
b101101111 1
b101101110 0
1%
#30536780
0%
#30578440
b101110000 1
b101101111 0
1%
#30620100
0%
#30661760
b101110001 1
b101110000 0
1%
#30703420
0%
#30745080
b101110010 1
b101110001 0
1%
#30786740
0%
#30828400
b101110011 1
b101110010 0
1%
#30870060
0%
#30911720
b101110100 1
b101110011 0
1%
#30953380
0%
#30995040
b101110101 1
b101110100 0
1%
#31036700
0%
#31078360
b101110110 1
b101110101 0
1%
#31120020
0%
#31161680
b101110111 1
b101110110 0
1%
#31203340
0%
#31245000
b101111000 1
b101110111 0
1%
#31286660
0%
#31328320
b101111001 1
b101111000 0
1%
#31369980
0%
#31411640
b101111010 1
b101111001 0
1%
#31453300
0%
#31494960
b101111011 1
b101111010 0
1%
#31536620
0%
#31578280
b101111100 1
b101111011 0
1%
#31619940
0%
#31661600
b101111101 1
b101111100 0
1%
#31703260
0%
#31744920
b101111110 1
b101111101 0
1%
#31786580
0%
#31828240
b101111111 1
b101111110 0
1%
#31869900
0%
#31911560
b110000000 1
b101111111 0
1%
#31953220
0%
#31994880
b110000001 1
b110000000 0
1%
#32036540
0%
#32078200
b110000010 1
b110000001 0
1%
#32119860
0%
#32161520
b110000011 1
b110000010 0
1%
#32203180
0%
#32244840
b110000100 1
b110000011 0
1%
#32286500
0%
#32328160
b110000101 1
b110000100 0
1%
#32369820
0%
#32411480
b110000110 1
b110000101 0
1%
#32453140
0%
#32494800
b110000111 1
b110000110 0
1%
#32536460
0%
#32578120
b110001000 1
b110000111 0
1%
#32619780
0%
#32661440
b110001001 1
b110001000 0
1%
#32703100
0%
#32744760
b110001010 1
b110001001 0
1%
#32786420
0%
#32828080
b110001011 1
b110001010 0
1%
#32869740
0%
#32911400
b110001100 1
b110001011 0
1%
#32953060
0%
#32994720
b110001101 1
b110001100 0
1%
#33036380
0%
#33078040
b110001110 1
b110001101 0
1%
#33119700
0%
#33161360
b110001111 1
b110001110 0
1%
#33203020
0%
#33244680
b110010000 1
b110001111 0
1%
#33286340
0%
#33328000
b110010001 1
b110010000 0
1%
#33369660
0%
#33411320
b110010010 1
b110010001 0
1%
#33452980
0%
#33494640
b110010011 1
b110010010 0
1%
#33536300
0%
#33577960
b110010100 1
b110010011 0
1%
#33619620
0%
#33661280
b110010101 1
b110010100 0
1%
#33702940
0%
#33744600
b110010110 1
b110010101 0
1%
#33786260
0%
#33827920
b110010111 1
b110010110 0
1%
#33869580
0%
#33911240
b110011000 1
b110010111 0
1%
#33952900
0%
#33994560
b110011001 1
b110011000 0
1%
#34036220
0%
#34077880
b110011010 1
b110011001 0
1%
#34119540
0%
#34161200
b110011011 1
b110011010 0
1%
#34202860
0%
#34244520
b110011100 1
b110011011 0
1%
#34286180
0%
#34327840
b110011101 1
b110011100 0
1%
#34369500
0%
#34411160
b110011110 1
b110011101 0
1%
#34452820
0%
#34494480
b110011111 1
b110011110 0
1%
#34536140
0%
#34577800
b110100000 1
b110011111 0
1%
#34619460
0%
#34661120
b110100001 1
b110100000 0
1%
#34702780
0%
#34744440
b110100010 1
b110100001 0
1%
#34786100
0%
#34827760
b110100011 1
b110100010 0
1%
#34869420
0%
#34911080
b110100100 1
b110100011 0
1%
#34952740
0%
#34994400
b110100101 1
b110100100 0
1%
#35036060
0%
#35077720
b110100110 1
b110100101 0
1%
#35119380
0%
#35161040
b110100111 1
b110100110 0
1%
#35202700
0%
#35244360
b110101000 1
b110100111 0
1%
#35286020
0%
#35327680
b110101001 1
b110101000 0
1%
#35369340
0%
#35411000
b110101010 1
b110101001 0
1%
#35452660
0%
#35494320
b110101011 1
b110101010 0
1%
#35535980
0%
#35577640
b110101100 1
b110101011 0
1%
#35619300
0%
#35660960
b110101101 1
b110101100 0
1%
#35702620
0%
#35744280
b110101110 1
b110101101 0
1%
#35785940
0%
#35827600
b110101111 1
b110101110 0
1%
#35869260
0%
#35910920
b110110000 1
b110101111 0
1%
#35952580
0%
#35994240
b110110001 1
b110110000 0
1%
#36035900
0%
#36077560
b110110010 1
b110110001 0
1%
#36119220
0%
#36160880
b110110011 1
b110110010 0
1%
#36202540
0%
#36244200
b110110100 1
b110110011 0
1%
#36285860
0%
#36327520
b110110101 1
b110110100 0
1%
#36369180
0%
#36410840
b110110110 1
b110110101 0
1%
#36452500
0%
#36494160
b110110111 1
b110110110 0
1%
#36535820
0%
#36577480
b110111000 1
b110110111 0
1%
#36619140
0%
#36660800
b110111001 1
b110111000 0
1%
#36702460
0%
#36744120
b110111010 1
b110111001 0
1%
#36785780
0%
#36827440
b110111011 1
b110111010 0
1%
#36869100
0%
#36910760
b110111100 1
b110111011 0
1%
#36952420
0%
#36994080
b110111101 1
b110111100 0
1%
#37035740
0%
#37077400
b110111110 1
b110111101 0
1%
#37119060
0%
#37160720
b110111111 1
b110111110 0
1%
#37202380
0%
#37244040
b111000000 1
b110111111 0
1%
#37285700
0%
#37327360
b111000001 1
b111000000 0
1%
#37369020
0%
#37410680
b111000010 1
b111000001 0
1%
#37452340
0%
#37494000
b111000011 1
b111000010 0
1%
#37535660
0%
#37577320
b111000100 1
b111000011 0
1%
#37618980
0%
#37660640
b111000101 1
b111000100 0
1%
#37702300
0%
#37743960
b111000110 1
b111000101 0
1%
#37785620
0%
#37827280
b111000111 1
b111000110 0
1%
#37868940
0%
#37910600
b111001000 1
b111000111 0
1%
#37952260
0%
#37993920
b111001001 1
b111001000 0
1%
#38035580
0%
#38077240
b111001010 1
b111001001 0
1%
#38118900
0%
#38160560
b111001011 1
b111001010 0
1%
#38202220
0%
#38243880
b111001100 1
b111001011 0
1%
#38285540
0%
#38327200
b111001101 1
b111001100 0
1%
#38368860
0%
#38410520
b111001110 1
b111001101 0
1%
#38452180
0%
